{
  "project_info": {
    "project_number": "223121944269",
    "project_id": "android-system-information",
    "storage_bucket": "android-system-information.appspot.com"
  },
  "client": [
    {
      "client_info": {
        "mobilesdk_app_id": "1:223121944269:android:801b8916d16c8c37278384",
        "android_client_info": {
          "package_name": "com.oeu.a.sysinfo"
        }
      },
      "oauth_client": [
        {
          "client_id": "223121944269-th1mtgqvdtpmm540l7vs2t1s07463bch.apps.googleusercontent.com",
          "client_type": 3
        }
      ],
      "api_key": [
        {
          "current_key": "AIzaSyA9cnhrhcVvt0uVrjhU9jDmJXqv4iZNYt4"
        }
      ],
      "services": {
        "appinvite_service": {
          "other_platform_oauth_client": [
            {
              "client_id": "223121944269-th1mtgqvdtpmm540l7vs2t1s07463bch.apps.googleusercontent.com",
              "client_type": 3
            }
          ]
        }
      }
    }
  ],
  "configuration_version": "1"
}